[
  {
    "text": "支払い方法一覧"
  },
  {
    "text": "有料オプションの自動計算"
  },
  {
    "text": "おつりの設定"
  },
  {
    "text": "確認電話の設定"
  },
  {
    "text": "追加情報の設定"
  },
  {
    "text": "キャンセルの設定"
  },
  {
    "text": "店舗注意事項の定型文"
  }
]
