[
  {
    "acount": "アネモネ渋谷事務所",
    "status": "有効",
    "group": "アネモネグループ"
  },
  {
    "acount": "アネモネ五反田事務所",
    "status": "有効",
    "group": "アネモネグループ"
  },
  {
    "acount": "アネモネグループ経理専用",
    "status": "有効",
    "group": "アネモネグループ"
  }
]
